<?xml version="1.0" encoding="utf-8"?>
<!-- Generator: Adobe Illustrator 16.0.0, SVG Export Plug-In . SVG Version: 6.00 Build 0)  -->
<!DOCTYPE svg PUBLIC "-//W3C//DTD SVG 1.1//EN" "http://www.w3.org/Graphics/SVG/1.1/DTD/svg11.dtd">
<svg version="1.1" id="Layer_1" xmlns="http://www.w3.org/2000/svg" xmlns:xlink="http://www.w3.org/1999/xlink" x="0px" y="0px"
	 width="87.096px" height="83.336px" viewBox="0 0 87.096 83.336" enable-background="new 0 0 87.096 83.336" xml:space="preserve">
<g>
	<path fill="#4478A7" d="M42.971,83.336c-0.079,0-0.158-0.006-0.238-0.016l-9.621-1.139c-0.53-0.063-1.018-0.34-1.347-0.766
		c-0.329-0.424-0.472-0.963-0.396-1.494l1.185-8.646c-3.931-1.32-7.59-3.377-10.731-6.021l-7.501,5.291
		c-0.875,0.619-2.078,0.438-2.732-0.409l-5.759-7.442c-0.333-0.433-0.479-0.979-0.396-1.521c0.081-0.539,0.378-1.021,0.824-1.338
		l7.389-5.219c-1.503-3.199-2.435-6.662-2.736-10.174l-9.149-1.1c-0.532-0.064-1.017-0.34-1.344-0.764
		c-0.328-0.426-0.474-0.964-0.398-1.495l1.269-9.203c0.146-1.082,1.136-1.848,2.22-1.713l9.196,1.104
		c1.247-3.363,3.067-6.462,5.438-9.25l-5.707-6.767c-0.353-0.418-0.519-0.961-0.459-1.505c0.061-0.543,0.337-1.039,0.771-1.371
		l7.594-5.828c0.849-0.651,2.059-0.521,2.748,0.298l5.785,6.87c3.746-1.822,7.86-2.946,12.069-3.293l1.204-8.7
		c0.149-1.08,1.125-1.844,2.222-1.712l9.615,1.156C54.516,1.234,55,1.51,55.327,1.935c0.325,0.425,0.472,0.963,0.396,1.495
		l-1.188,8.646c3.929,1.315,7.587,3.369,10.729,6.024l7.499-5.287c0.873-0.614,2.077-0.437,2.733,0.41l5.758,7.428
		c0.334,0.431,0.478,0.98,0.396,1.52s-0.379,1.023-0.821,1.338l-7.392,5.222c1.502,3.196,2.438,6.66,2.74,10.178l9.156,1.097
		c0.532,0.064,1.018,0.339,1.346,0.765s0.471,0.964,0.397,1.497l-1.278,9.209c-0.149,1.08-1.134,1.84-2.221,1.711l-9.198-1.105
		c-1.248,3.342-3.095,6.486-5.424,9.242l5.699,6.768c0.354,0.418,0.52,0.961,0.461,1.506c-0.062,0.543-0.339,1.035-0.771,1.369
		l-7.594,5.84c-0.851,0.648-2.063,0.521-2.749-0.299l-5.782-6.873c-3.749,1.822-7.867,2.945-12.074,3.293l-1.194,8.686
		C44.813,82.609,43.957,83.336,42.971,83.336z M35.606,78.45l5.649,0.67l1.154-8.369c0.133-0.965,0.939-1.692,1.916-1.728
		c4.723-0.153,9.364-1.418,13.434-3.653c0.835-0.461,1.88-0.265,2.494,0.465l5.579,6.631l4.419-3.397l-5.476-6.494
		c-0.653-0.778-0.622-1.928,0.078-2.666c2.869-3.022,5.029-6.688,6.247-10.602c0.287-0.921,1.186-1.505,2.148-1.392l8.854,1.065
		l0.729-5.246l-8.796-1.055c-0.984-0.117-1.733-0.938-1.764-1.931c-0.11-4.075-1.206-8.12-3.157-11.698
		c-0.487-0.891-0.229-2.005,0.601-2.592l7.092-5.012l-3.307-4.266l-7.233,5.099c-0.773,0.546-1.829,0.474-2.521-0.176
		c-3.354-3.142-7.487-5.455-11.962-6.689c-0.969-0.267-1.586-1.208-1.449-2.201l1.146-8.317L45.837,4.22l-1.16,8.381
		c-0.134,0.965-0.942,1.693-1.916,1.725c-4.725,0.155-9.369,1.419-13.429,3.656c-0.835,0.46-1.879,0.266-2.495-0.464l-5.584-6.631
		l-4.417,3.389l5.478,6.496c0.657,0.779,0.624,1.926-0.077,2.666c-2.928,3.089-5.031,6.657-6.259,10.604
		c-0.286,0.923-1.188,1.511-2.146,1.393l-8.854-1.063l-0.721,5.241l8.788,1.061c0.981,0.119,1.73,0.94,1.76,1.932
		c0.109,4.063,1.201,8.105,3.157,11.689c0.483,0.893,0.228,2.006-0.604,2.592l-7.093,5.012l3.313,4.277l7.229-5.104
		c0.774-0.547,1.826-0.477,2.521,0.174c3.353,3.131,7.49,5.445,11.973,6.693c0.964,0.27,1.581,1.209,1.445,2.199L35.606,78.45z
		 M43.431,59.307c-9.641,0-17.64-7.248-18.21-16.5c-0.292-4.717,1.35-9.264,4.623-12.803c3.25-3.515,7.728-5.617,12.607-5.918
		c10.154-0.631,18.827,6.828,19.424,16.456c0.6,9.701-7.142,18.103-17.249,18.729C44.226,59.293,43.826,59.307,43.431,59.307z
		 M43.648,28.048c-0.313,0-0.632,0.01-0.951,0.029c-3.847,0.237-7.366,1.886-9.917,4.642c-2.521,2.729-3.791,6.224-3.564,9.84
		c0.459,7.445,7.225,13.209,15.166,12.719c7.909-0.488,13.968-6.988,13.504-14.488C57.441,33.644,51.188,28.048,43.648,28.048z"/>
</g>
</svg>
