<?xml version="1.0" encoding="utf-8"?>
<!-- Generator: Adobe Illustrator 16.0.0, SVG Export Plug-In . SVG Version: 6.00 Build 0)  -->
<!DOCTYPE svg PUBLIC "-//W3C//DTD SVG 1.1//EN" "http://www.w3.org/Graphics/SVG/1.1/DTD/svg11.dtd">
<svg version="1.1" id="Layer_1" xmlns="http://www.w3.org/2000/svg" xmlns:xlink="http://www.w3.org/1999/xlink" x="0px" y="0px"
	 width="65.057px" height="67.319px" viewBox="0 0 65.057 67.319" enable-background="new 0 0 65.057 67.319" xml:space="preserve">
<g>
	<g>
		<path fill="#4478A7" d="M26.535,67.319c-0.412,0-0.747-0.332-0.75-0.744c-0.001-0.104-0.091-10.543-0.748-13.723
			c-0.62-3.006-2.147-6.544-3.765-10.29c-4.254-9.852-9.548-22.113-1.536-32.87c5.567-7.474,12.643-9.375,17.599-9.653
			C43.763-0.326,50.688,2.013,54.16,5.72c3.617,3.863,5.16,7.917,5.16,13.558v0.702c-0.002,4.409,0.004,4.464,0.567,5.907
			c0.369,0.942,1.383,2.268,2.362,3.551c1.006,1.317,1.957,2.561,2.364,3.562c0.365,0.896,0.71,2.036,0.131,2.896
			c-0.618,0.918-1.97,1.024-2.934,1.024c-0.963,0-1.574,0.115-1.919,0.212v11.563c0.004,0.01,0.158,1.859-1.157,3.265
			c-0.973,1.039-2.449,1.531-4.38,1.491c-3.02-0.076-4.573-0.063-5.332-0.041v13.159c0,0.414-0.336,0.75-0.75,0.75
			s-0.75-0.336-0.75-0.75V52.701c0-0.374,0.276-0.691,0.647-0.743c0.104-0.014,1.159-0.136,6.224-0.007
			c1.493,0.042,2.579-0.304,3.245-1.016c0.847-0.905,0.757-2.159,0.756-2.172l-0.003-12.141c0-0.253,0.127-0.488,0.339-0.627
			c0.146-0.097,0.983-0.576,3.08-0.576c1.341,0,1.632-0.276,1.688-0.361c0.078-0.115,0.145-0.463-0.274-1.494
			c-0.332-0.815-1.266-2.036-2.167-3.217c-1.043-1.365-2.122-2.776-2.567-3.915c-0.673-1.72-0.673-1.987-0.671-6.454v-0.701
			c0-5.294-1.378-8.925-4.756-12.532c-2.608-2.786-8.617-5.607-15.645-5.208c-4.637,0.261-11.259,2.043-16.48,9.052
			c-7.494,10.061-2.604,21.386,1.71,31.378c1.649,3.819,3.206,7.426,3.856,10.582c0.687,3.322,0.775,13.578,0.779,14.014
			c0.003,0.414-0.33,0.753-0.744,0.756C26.539,67.319,26.537,67.319,26.535,67.319z"/>
	</g>
	<path fill="#30BADC" d="M14.846,28.267c-6.776,0-12.269,5.493-12.269,12.268c0,6.777,5.493,12.27,12.269,12.27
		s12.269-5.492,12.269-12.27C27.115,33.76,21.622,28.267,14.846,28.267 M18.7,42.378h-4.494v4.492c0,0.414-0.336,0.75-0.75,0.75
		c-0.414,0-0.75-0.336-0.75-0.75v-4.492H8.213c-0.414,0-0.75-0.336-0.75-0.75s0.336-0.75,0.75-0.75h4.493v-4.494
		c0-0.414,0.336-0.75,0.75-0.75c0.414,0,0.75,0.336,0.75,0.75v4.494H18.7c0.414,0,0.75,0.336,0.75,0.75S19.114,42.378,18.7,42.378"
		/>
	<g>
		<path fill="#4478A7" d="M13.893,55.522C6.233,55.522,0,49.289,0,41.627c0-0.414,0.336-0.75,0.75-0.75s0.75,0.336,0.75,0.75
			c0,6.834,5.559,12.395,12.393,12.395c6.834,0,12.394-5.561,12.394-12.395s-5.56-12.394-12.394-12.394
			c-1.744,0-3.43,0.355-5.013,1.056c-0.379,0.167-0.822-0.004-0.99-0.382c-0.167-0.379,0.004-0.822,0.382-0.99
			c1.775-0.786,3.667-1.184,5.621-1.184c7.661,0,13.894,6.233,13.894,13.894S21.554,55.522,13.893,55.522z"/>
	</g>
</g>
</svg>
