<?xml version="1.0" encoding="utf-8"?>
<!-- Generator: Adobe Illustrator 16.0.0, SVG Export Plug-In . SVG Version: 6.00 Build 0)  -->
<!DOCTYPE svg PUBLIC "-//W3C//DTD SVG 1.1//EN" "http://www.w3.org/Graphics/SVG/1.1/DTD/svg11.dtd">
<svg version="1.1" id="Layer_1" xmlns="http://www.w3.org/2000/svg" xmlns:xlink="http://www.w3.org/1999/xlink" x="0px" y="0px"
	 width="85.333px" height="78.398px" viewBox="0 0 85.333 78.398" enable-background="new 0 0 85.333 78.398" xml:space="preserve">
<g>
	<path fill="#FAFAFA" d="M2,78.398c-1.104,0-2-0.896-2-2v-63.05C0,5.988,5.988,0,13.349,0h33.416c7.36,0,13.349,5.988,13.349,13.348
		v8.039c0,1.104-0.896,2-2,2s-2-0.896-2-2v-8.039C56.113,8.194,51.92,4,46.765,4H13.349C8.194,4,4,8.194,4,13.348v63.05
		C4,77.502,3.104,78.398,2,78.398z"/>
</g>
<g>
	<path fill="#FAFAFA" d="M83.333,78.398c-1.104,0-2-0.896-2-2V32.065c0-4.351-3.539-7.89-7.89-7.89H37.11
		c-4.351,0-7.89,3.54-7.89,7.89v44.333c0,1.104-0.896,2-2,2s-2-0.896-2-2V32.065c0-6.556,5.334-11.89,11.89-11.89h36.333
		c6.556,0,11.89,5.334,11.89,11.89v44.333C85.333,77.502,84.438,78.398,83.333,78.398z"/>
</g>
<g>
	<path fill="#FAFAFA" d="M72.833,48.366H38.167c-1.104,0-2-0.896-2-2V36.032c0-1.104,0.896-2,2-2h34.666c1.104,0,2,0.896,2,2v10.334
		C74.833,47.47,73.938,48.366,72.833,48.366z M40.167,44.366h30.666v-6.334H40.167V44.366z"/>
</g>
<g>
	<path fill="#FAFAFA" d="M72.833,67.699H38.167c-1.104,0-2-0.896-2-2V55.366c0-1.104,0.896-2,2-2h34.666c1.104,0,2,0.896,2,2v10.333
		C74.833,66.803,73.938,67.699,72.833,67.699z M40.167,63.699h30.666v-6.333H40.167V63.699z"/>
</g>
<g>
	<path fill="#FAFAFA" d="M24.261,31.199H13.74c-2.89,0-5.24-2.35-5.24-5.239v-9.522c0-2.889,2.351-5.239,5.24-5.239h10.521
		c2.889,0,5.239,2.35,5.239,5.239v9.522C29.5,28.849,27.149,31.199,24.261,31.199z M13.74,15.199c-0.672,0-1.24,0.567-1.24,1.239
		v9.522c0,0.671,0.568,1.239,1.24,1.239h10.521c0.671,0,1.239-0.567,1.239-1.239v-9.522c0-0.672-0.567-1.239-1.239-1.239H13.74z"/>
</g>
<g>
	<path fill="#FAFAFA" d="M33.25,24.074c-1.104,0-2-0.896-2-2v-5.636c0-2.889,2.35-5.239,5.239-5.239h10.522
		c2.889,0,5.239,2.35,5.239,5.239v4.511c0,1.104-0.896,2-2,2s-2-0.896-2-2v-4.511c0-0.672-0.567-1.239-1.239-1.239H36.489
		c-0.671,0-1.239,0.567-1.239,1.239v5.636C35.25,23.178,34.354,24.074,33.25,24.074z"/>
</g>
<g>
	<path fill="#FAFAFA" d="M25.375,57.532H13.643c-2.836,0-5.143-2.307-5.143-5.143v-9.713c0-2.837,2.307-5.145,5.143-5.145h11.732
		c1.104,0,2,0.896,2,2s-0.896,2-2,2H13.643c-0.62,0-1.143,0.524-1.143,1.145v9.713c0,0.619,0.523,1.143,1.143,1.143h11.732
		c1.104,0,2,0.896,2,2S26.479,57.532,25.375,57.532z"/>
</g>
</svg>
