<?xml version="1.0" encoding="utf-8"?>
<!-- Generator: Adobe Illustrator 16.0.0, SVG Export Plug-In . SVG Version: 6.00 Build 0)  -->
<!DOCTYPE svg PUBLIC "-//W3C//DTD SVG 1.1//EN" "http://www.w3.org/Graphics/SVG/1.1/DTD/svg11.dtd">
<svg version="1.1" id="Layer_1" xmlns="http://www.w3.org/2000/svg" xmlns:xlink="http://www.w3.org/1999/xlink" x="0px" y="0px"
	 width="42px" height="42px" viewBox="0 0 42 42" enable-background="new 0 0 42 42" xml:space="preserve">
<circle fill="#213153" cx="21" cy="21" r="20.955"/>
<g>
	<polygon fill="#FFFFFF" points="22.999,17.751 22.999,10.417 19,10.417 19,17.751 16.403,17.751 21,23.5 25.596,17.751 	"/>
	<polygon fill="#FFFFFF" points="28.083,23.5 28.083,28.583 13.917,28.583 13.917,23.5 10.917,23.5 10.917,31.583 11.75,31.583 
		13.917,31.583 28.083,31.583 31.083,31.583 31.083,28.583 31.083,23.5 	"/>
</g>
</svg>
