<?xml version="1.0" encoding="utf-8"?>
<!-- Generator: Adobe Illustrator 16.0.0, SVG Export Plug-In . SVG Version: 6.00 Build 0)  -->
<!DOCTYPE svg PUBLIC "-//W3C//DTD SVG 1.1//EN" "http://www.w3.org/Graphics/SVG/1.1/DTD/svg11.dtd">
<svg version="1.1" id="Layer_1" xmlns="http://www.w3.org/2000/svg" xmlns:xlink="http://www.w3.org/1999/xlink" x="0px" y="0px"
	 width="92.01px" height="92.01px" viewBox="0 0 92.01 92.01" enable-background="new 0 0 92.01 92.01" xml:space="preserve">
<g>
	<path fill="#6EC3E2" d="M46.005,32.287c5.259,0,9.537-4.279,9.537-9.537c0-5.259-4.278-9.537-9.537-9.537
		c-5.259,0-9.537,4.278-9.537,9.537C36.468,28.008,40.746,32.287,46.005,32.287 M46.005,16.815c3.271,0,5.935,2.662,5.935,5.934
		s-2.663,5.934-5.935,5.934c-3.272,0-5.935-2.662-5.935-5.934S42.733,16.815,46.005,16.815"/>
</g>
<g>
	<path fill="#6EC3E2" d="M35.434,76.257h21.141c0.995,0,1.802-0.807,1.802-1.801v-5.987c0-0.994-0.807-1.801-1.802-1.801h-2.051
		V37.133c0-0.995-0.808-1.801-1.803-1.801H35.434c-0.994,0-1.801,0.806-1.801,1.801v5.986c0,0.995,0.807,1.801,1.801,1.801h2.052
		v21.749h-2.052c-0.994,0-1.801,0.807-1.801,1.801v5.987C33.633,75.45,34.44,76.257,35.434,76.257 M37.236,70.271h2.051
		c0.995,0,1.802-0.807,1.802-1.802V43.12c0-0.995-0.807-1.802-1.802-1.802h-2.051v-2.384h13.686V68.47
		c0,0.994,0.807,1.801,1.8,1.801h2.052v2.384H37.236V70.271z"/>
</g>
<g>
	<path fill="#6EC3E2" d="M3.177,92.01c-0.521,0-1.032-0.203-1.414-0.585c-0.556-0.556-0.735-1.386-0.458-2.121L7.907,71.8
		C2.73,64.173,0,55.277,0,46.005C0,20.638,20.637,0,46.005,0C71.372,0,92.01,20.638,92.01,46.005S71.372,92.01,46.005,92.01
		c-8.61,0-16.968-2.381-24.238-6.896L3.884,91.88C3.654,91.968,3.415,92.01,3.177,92.01z M21.996,80.89
		c0.383,0,0.763,0.11,1.092,0.325c6.817,4.445,14.742,6.795,22.917,6.795c23.161,0,42.005-18.844,42.005-42.005
		C88.01,22.843,69.166,4,46.005,4C22.843,4,4,22.843,4,46.005c0,8.796,2.69,17.218,7.778,24.355
		c0.387,0.543,0.478,1.243,0.243,1.867l-5.41,14.345l14.677-5.553C21.517,80.933,21.757,80.89,21.996,80.89z"/>
</g>
</svg>
