<?xml version="1.0" encoding="utf-8"?>
<!-- Generator: Adobe Illustrator 16.0.0, SVG Export Plug-In . SVG Version: 6.00 Build 0)  -->
<!DOCTYPE svg PUBLIC "-//W3C//DTD SVG 1.1//EN" "http://www.w3.org/Graphics/SVG/1.1/DTD/svg11.dtd">
<svg version="1.1" id="Layer_1" xmlns="http://www.w3.org/2000/svg" xmlns:xlink="http://www.w3.org/1999/xlink" x="0px" y="0px"
	 width="60.887px" height="76.488px" viewBox="0 0 60.887 76.488" enable-background="new 0 0 60.887 76.488" xml:space="preserve">
<g>
	<g>
		<path fill="#E5CC38" d="M42.864,34.456c-0.122,0-0.247-0.003-0.375-0.009c-2.653-0.127-5.132-1.534-6.621-3.762
			c-0.614-0.918-0.368-2.16,0.55-2.774c0.919-0.616,2.16-0.368,2.772,0.55c0.777,1.163,2.115,1.929,3.49,1.991
			c0.763,0.039,1.853-0.129,2.667-1.127c0.497-0.606,1.017-1.562,0.67-2.661c-0.399-1.271-1.854-2.377-3.887-2.95
			c-4.342-1.225-6.422-4.182-5.854-8.324c0.347-2.521,2.434-5.471,7.179-5.479c0.006,0,0.013,0,0.02,0
			c4.432,0,6.473,3.327,6.934,5.088c0.277,1.069-0.36,2.162-1.432,2.44c-1.061,0.273-2.146-0.354-2.435-1.407
			c-0.107-0.365-0.751-2.122-3.068-2.122c-0.004,0-0.008,0-0.011,0c-2.658,0.005-3.141,1.413-3.224,2.021
			c-0.211,1.547,0.005,3.096,2.979,3.936c3.386,0.955,5.797,2.996,6.615,5.599c0.68,2.155,0.172,4.485-1.392,6.396
			C47.082,33.521,45.065,34.456,42.864,34.456z"/>
	</g>
	<g>
		<path fill="#E5CC38" d="M42.856,13.811c-1.104,0-1.998-0.896-2-1.996l-0.005-2.604c-0.002-1.104,0.894-2.002,1.996-2.004
			c0.001,0,0.003,0,0.004,0c1.104,0,1.998,0.896,2,1.996l0.005,2.604c0.002,1.104-0.893,2.002-1.996,2.004
			C42.859,13.811,42.857,13.811,42.856,13.811z"/>
	</g>
	<g>
		<path fill="#E5CC38" d="M42.9,37.081c-1.104,0-1.998-0.893-2-1.996l-0.005-2.604c-0.002-1.104,0.894-2.002,1.996-2.004
			c0.001,0,0.003,0,0.004,0c1.104,0,1.998,0.893,2,1.996l0.005,2.604c0.002,1.104-0.893,2.002-1.996,2.004
			C42.903,37.081,42.901,37.081,42.9,37.081z"/>
	</g>
	<g>
		<path fill="#E5CC38" d="M58.886,76.488c-0.635,0-1.246-0.303-1.629-0.839l-5.298-7.428l-4.542,7.318
			c-0.354,0.569-0.968,0.924-1.64,0.944c-0.671,0.024-1.306-0.296-1.691-0.843l-5.462-7.705l-6.218,7.796
			c-0.382,0.477-0.955,0.753-1.563,0.753c-0.012,0-0.021,0-0.031,0c-0.62-0.01-1.2-0.308-1.569-0.803l-5.745-7.692l-5.531,7.665
			c-0.38,0.526-1.005,0.791-1.639,0.83c-0.647-0.006-1.256-0.325-1.624-0.857l-5.303-7.609l-5.807,7.676
			c-0.519,0.686-1.415,0.962-2.231,0.688C0.549,76.111,0,75.347,0,74.488V6.265C0,2.811,2.81,0,6.265,0H54.62
			c3.455,0,6.267,2.813,6.267,6.267v68.223c0,0.87-0.563,1.64-1.392,1.905C59.295,76.457,59.089,76.488,58.886,76.488z
			 M23.469,62.614c0.631,0,1.225,0.298,1.603,0.803l5.824,7.799l6.262-7.849c0.392-0.491,0.97-0.779,1.618-0.752
			c0.628,0.018,1.212,0.33,1.575,0.843l5.257,7.415l4.537-7.313c0.354-0.568,0.966-0.923,1.635-0.944
			c0.671-0.026,1.306,0.293,1.692,0.838l3.414,4.786V6.265C56.886,5.016,55.868,4,54.619,4H6.265C5.016,4.001,4,5.017,4,6.265
			v62.264l3.874-5.121c0.388-0.512,0.986-0.79,1.635-0.794c0.641,0.013,1.236,0.332,1.603,0.857l5.265,7.559l5.475-7.586
			c0.373-0.519,0.969-0.825,1.604-0.83C23.458,62.614,23.463,62.614,23.469,62.614z"/>
	</g>
	<g>
		<path fill="#E5CC38" d="M26.969,13.697H11.344c-1.104,0-2-0.896-2-2c0-1.104,0.896-2,2-2h15.625c1.104,0,2,0.896,2,2
			C28.969,12.801,28.073,13.697,26.969,13.697z"/>
	</g>
	<g>
		<path fill="#E5CC38" d="M26.969,32.697H11.344c-1.104,0-2-0.896-2-2c0-1.104,0.896-2,2-2h15.625c1.104,0,2,0.896,2,2
			C28.969,31.801,28.073,32.697,26.969,32.697z"/>
	</g>
	<g>
		<path fill="#E5CC38" d="M50.302,46.531H11.594c-1.104,0-2-0.896-2-2c0-1.104,0.896-2,2-2h38.708c1.104,0,2,0.896,2,2
			C52.302,45.635,51.406,46.531,50.302,46.531z"/>
	</g>
	<g>
		<path fill="#E5CC38" d="M19.636,23.447h-8.292c-1.104,0-2-0.896-2-2c0-1.104,0.896-2,2-2h8.292c1.104,0,2,0.896,2,2
			C21.636,22.551,20.74,23.447,19.636,23.447z"/>
	</g>
	<g>
		<path fill="#E5CC38" d="M50.302,55.947h-8.291c-1.104,0-2-0.896-2-2c0-1.104,0.896-2,2-2h8.291c1.104,0,2,0.896,2,2
			C52.302,55.051,51.406,55.947,50.302,55.947z"/>
	</g>
</g>
</svg>
