<?xml version="1.0" encoding="utf-8"?>
<!-- Generator: Adobe Illustrator 16.0.0, SVG Export Plug-In . SVG Version: 6.00 Build 0)  -->
<!DOCTYPE svg PUBLIC "-//W3C//DTD SVG 1.1//EN" "http://www.w3.org/Graphics/SVG/1.1/DTD/svg11.dtd">
<svg version="1.1" id="Layer_1" xmlns="http://www.w3.org/2000/svg" xmlns:xlink="http://www.w3.org/1999/xlink" x="0px" y="0px"
	 width="1045.02px" height="274.239px" viewBox="0 0 1045.02 274.239" enable-background="new 0 0 1045.02 274.239"
	 xml:space="preserve">
<g>
	<path fill="#293E66" d="M295.188,221.977c7.305,4.495,17.982,8.242,29.222,8.242c16.671,0,26.412-8.805,26.412-21.542
		c0-11.801-6.744-18.544-23.79-25.101c-20.604-7.305-33.342-17.982-33.342-35.777c0-19.668,16.296-34.279,40.835-34.279
		c12.925,0,22.291,2.997,27.91,6.181l-4.496,13.3c-4.121-2.248-12.55-5.994-23.977-5.994c-17.233,0-23.789,10.302-23.789,18.919
		c0,11.801,7.68,17.607,25.101,24.352c21.354,8.241,32.218,18.544,32.218,37.089c0,19.48-14.423,36.339-44.207,36.339
		c-12.176,0-25.475-3.559-32.219-8.055L295.188,221.977z"/>
	<path fill="#293E66" d="M445.603,182.64h-49.077v45.519h54.696v13.674h-70.993V115.581h68.183v13.674h-51.887v39.899h49.077V182.64
		z"/>
	<path fill="#293E66" d="M569.23,186.386c-0.937-17.607-2.061-38.774-1.873-54.509h-0.563c-4.309,14.798-9.553,30.532-15.922,47.953
		l-22.291,61.253H516.22l-20.418-60.129c-5.994-17.795-11.051-34.092-14.61-49.077h-0.375c-0.375,15.734-1.311,36.901-2.435,55.82
		l-3.372,54.135h-15.547l8.804-126.251h20.792l21.542,61.065c5.245,15.548,9.553,29.409,12.738,42.521h0.562
		c3.185-12.738,7.68-26.6,13.3-42.521l22.478-61.065h20.792l7.868,126.251h-15.922L569.23,186.386z"/>
	<path fill="#293E66" d="M669.067,182.64H619.99v45.519h54.697v13.674h-70.993V115.581h68.183v13.674H619.99v39.899h49.077V182.64z"
		/>
	<path fill="#293E66" d="M706.717,202.121l-13.112,39.711h-16.858l42.896-126.251h19.669l43.083,126.251h-17.421l-13.486-39.711
		H706.717z M748.114,189.384l-12.363-36.34c-2.81-8.242-4.683-15.735-6.556-23.04h-0.375c-1.873,7.493-3.934,15.173-6.368,22.853
		l-12.363,36.527H748.114z"/>
	<path fill="#293E66" d="M791.197,117.266c8.242-1.686,20.043-2.622,31.281-2.622c17.421,0,28.66,3.184,36.527,10.302
		c6.369,5.62,9.928,14.236,9.928,23.977c0,16.671-10.49,27.723-23.789,32.219v0.562c9.74,3.372,15.547,12.363,18.544,25.476
		c4.121,17.607,7.118,29.783,9.74,34.653H856.57c-2.061-3.559-4.87-14.424-8.429-30.158c-3.747-17.42-10.49-23.977-25.288-24.538
		h-15.36v54.696h-16.296V117.266z M807.493,174.772h16.672c17.42,0,28.472-9.553,28.472-23.977
		c0-16.296-11.801-23.415-29.034-23.602c-7.867,0-13.486,0.749-16.109,1.498V174.772z"/>
</g>
<path fill="#293E66" d="M230.997,246.415h-93.878c0,0-15.922-0.348-20.881-27.928c-1.748-9.718-2.697-31.289-2.697-31.289
	s-2.61-49.233,30.277-87.211c12.48-14.411,26.103-27.381,40.631-37.238c23.699-16.079,46.548-24.796,46.548-24.796V246.415z"/>
<path fill="#00C4E5" d="M147.994,73.756c-6.928,7.356-12.926,15.011-17.684,21.925c-23.112,33.592-23.915,58.619-23.915,58.619
	s-0.337-25.689-47.841-61.012C26.595,69.524,0,63.642,0,63.642V14.114h230.997C230.997,14.114,188.059,31.21,147.994,73.756"/>
<path fill="#0079AA" d="M77.978,246.48L0,246.415V82.5c0,0,27.69,4.263,56.727,23.143c19.17,12.464,40.397,38.441,44.372,65.774
	C111.453,242.587,77.978,246.48,77.978,246.48"/>
<g>
	<path fill="#293E66" d="M298.122,17.092c3.511-0.739,9.054-1.294,14.69-1.294c8.038,0,13.212,1.386,17.093,4.527
		c3.234,2.402,5.174,6.098,5.174,10.995c0,6.005-3.973,11.272-10.533,13.674v0.185c5.913,1.479,12.843,6.375,12.843,15.614
		c0,5.359-2.125,9.424-5.267,12.473c-4.342,3.973-11.364,5.82-21.527,5.82c-5.543,0-9.793-0.37-12.473-0.739V17.092z M306.16,42.592
		h7.299c8.5,0,13.489-4.435,13.489-10.44c0-7.299-5.543-10.163-13.674-10.163c-3.695,0-5.82,0.277-7.114,0.554V42.592z
		 M306.16,72.435c1.57,0.277,3.88,0.369,6.745,0.369c8.315,0,15.983-3.049,15.983-12.103c0-8.5-7.299-12.011-16.076-12.011h-6.652
		V72.435z"/>
	<path fill="#293E66" d="M383.86,58.945l-6.467,19.587h-8.315l21.158-62.272h9.701l21.25,62.272h-8.593l-6.652-19.587H383.86z
		 M404.279,52.663l-6.098-17.924c-1.386-4.065-2.31-7.761-3.233-11.364h-0.185c-0.924,3.696-1.94,7.484-3.141,11.272l-6.098,18.017
		H404.279z"/>
	<path fill="#293E66" d="M455.833,78.532V16.26h8.777l19.957,31.505c4.62,7.299,8.223,13.859,11.179,20.234l0.185-0.092
		c-0.739-8.315-0.924-15.892-0.924-25.593V16.26h7.576v62.272h-8.13l-19.772-31.598c-4.342-6.929-8.5-14.043-11.641-20.788
		l-0.277,0.092c0.462,7.854,0.647,15.337,0.647,25.685v26.609H455.833z"/>
	<path fill="#293E66" d="M585.643,76.5c-2.956,1.479-8.869,2.957-16.445,2.957c-17.555,0-30.767-11.087-30.767-31.505
		c0-19.495,13.212-32.707,32.521-32.707c7.762,0,12.658,1.663,14.783,2.772l-1.94,6.56c-3.049-1.478-7.392-2.587-12.565-2.587
		c-14.598,0-24.299,9.332-24.299,25.685c0,15.245,8.777,25.038,23.93,25.038c4.896,0,9.886-1.016,13.119-2.587L585.643,76.5z"/>
	<path fill="#293E66" d="M674.522,46.75c0,21.435-13.027,32.799-28.918,32.799c-16.446,0-27.995-12.75-27.995-31.598
		c0-19.772,12.288-32.707,28.919-32.707C663.528,15.244,674.522,28.271,674.522,46.75z M626.202,47.766
		c0,13.305,7.206,25.223,19.864,25.223c12.75,0,19.956-11.734,19.956-25.87c0-12.381-6.467-25.315-19.864-25.315
		C632.854,21.804,626.202,34.092,626.202,47.766z"/>
</g>
</svg>
